// this is the sample data.
{
	"photos":{
		"page":1,
		"pages":5,
		"perpage":100,
		"total":"407",
		"photo":[
			{
				"id":"32490279621",
				"owner":"145848356@N07",
				"secret":"9c02b12ed2",
				"server":"255",
				"farm":1,
				"title":"DSCF5436",
				"ispublic":1,
				"isfriend":0,
				"isfamily":0
			},
			{
				"id":"32572413866",
				"owner":"145848356@N07",
				"secret":"26e5b18205",
				"server":"307",
				"farm":1,
				"title":"DSCF5444",
				"ispublic":1,
				"isfriend":0,
				"isfamily":0
			},
			{
				"id":"21264086572",
				"owner":"28629347@N04",
				"secret":"16766fa1d6",
				"server":"569",
				"farm":1,
				"title":"",
				"ispublic":1,
				"isfriend":0,
				"isfamily":0
			},
			{
				"id":"21087660589",
				"owner":"28629347@N04",
				"secret":"815af42946",
				"server":"772",
				"farm":1,
				"title":"",
				"ispublic":1,
				"isfriend":0,
				"isfamily":0
			},
			{
				"id":"20984289118",
				"owner":"28629347@N04",
				"secret":"ded1719e0f",
				"server":"5757",
				"farm":6,
				"title":"",
				"ispublic":1,
				"isfriend":0,
				"isfamily":0
			},
			{
				"id":"20985377509",
				"owner":"28629347@N04",
				"secret":"51498d1c62",
				"server":"5773",
				"farm":6,
				"title":"",
				"ispublic":1,
				"isfriend":0,
				"isfamily":0
			},
			{
				"id":"20549210224",
				"owner":"28629347@N04",
				"secret":"942e36001b",
				"server":"5631",
				"farm":6,
				"title":"",
				"ispublic":1,
				"isfriend":0,
				"isfamily":0
			},
			{
				"id":"15017124815",
				"owner":"94735786@N00",
				"secret":"f56de77749",
				"server":"3912",
				"farm":4,
				"title":"Malaysia Airlines Airbus A330-300 (9M-MTN)",
				"ispublic":1,
				"isfriend":0,
				"isfamily":0
			},
			{
				"id":"14830393449",
				"owner":"94735786@N00",
				"secret":"2781ebbe8e",
				"server":"3877",
				"farm":4,
				"title":"Malaysia Airlines Airbus A330-300 (9M-MTN)",
				"ispublic":1,
				"isfriend":0,
				"isfamily":0
			},
			{
				"id":"9126777264",
				"owner":"67009657@N03",
				"secret":"2ee3ec31e9",
				"server":"2859",
				"farm":3,
				"title":"Surfer dude",
				"ispublic":1,
				"isfriend":0,
				"isfamily":0
			},
			{
				"id":"9124547415",
				"owner":"67009657@N03",
				"secret":"31b33b5c4c",
				"server":"5500",
				"farm":6,
				"title":"Crab on the beach",
				"ispublic":1,
				"isfriend":0,
				"isfamily":0
			},
			{
				"id":"9074908936",
				"owner":"9275107@N04",
				"secret":"356d239c21",
				"server":"5515",
				"farm":6,
				"title":"",
				"ispublic":1,
				"isfriend":0,
				"isfamily":0
			},
			{
				"id":"9072680443",
				"owner":"9275107@N04",
				"secret":"325f0ae47d",
				"server":"7427",
				"farm":8,
				"title":"",
				"ispublic":1,
				"isfriend":0,
				"isfamily":0
			},
			{
				"id":"9072679301",
				"owner":"9275107@N04",
				"secret":"dee338eb36",
				"server":"3748",
				"farm":4,
				"title":"",
				"ispublic":1,
				"isfriend":0,
				"isfamily":0
			},
			{
				"id":"9072678823",
				"owner":"9275107@N04",
				"secret":"62eb669954",
				"server":"7304",
				"farm":8,
				"title":"",
				"ispublic":1,
				"isfriend":0,
				"isfamily":0
			},
			{
				"id":"9074906082",
				"owner":"9275107@N04",
				"secret":"da75670f28",
				"server":"2888",
				"farm":3,
				"title":"",
				"ispublic":1,
				"isfriend":0,
				"isfamily":0
			},
			{
				"id":"9072677509",
				"owner":"9275107@N04",
				"secret":"48392e6191",
				"server":"3679",
				"farm":4,
				"title":"",
				"ispublic":1,
				"isfriend":0,
				"isfamily":0
			},
			{
				"id":"9060036255",
				"owner":"9275107@N04",
				"secret":"0b2bc5947a",
				"server":"5467",
				"farm":6,
				"title":"",
				"ispublic":1,
				"isfriend":0,
				"isfamily":0
			},
			{
				"id":"6131783231",
				"owner":"62606667@N04",
				"secret":"f3039b5b45",
				"server":"6184",
				"farm":7,
				"title":"Australian sunrise from 42,000ft",
				"ispublic":1,
				"isfriend":0,
				"isfamily":0
			},
			{
				"id":"5674381790",
				"owner":"43929620@N05",
				"secret":"02b07edbe3",
				"server":"5104",
				"farm":6,
				"title":"Coworking with @kristinlow",
				"ispublic":1,
				"isfriend":0,
				"isfamily":0
			},
			{
				"id":"5591957012",
				"owner":"29397926@N00",
				"secret":"e1d6011cbf",
				"server":"5266",
				"farm":6,
				"title":"Parrot :: Australia :: 2005",
				"ispublic":1,
				"isfriend":0,
				"isfamily":0
			},
			{
				"id":"5581781936",
				"owner":"42336769@N05",
				"secret":"bccf691f75",
				"server":"5251",
				"farm":6,
				"title":"Don Bradman's Cap at the MCG",
				"ispublic":1,
				"isfriend":0,
				"isfamily":0
			},
			{
				"id":"5572835220",
				"owner":"42336769@N05",
				"secret":"2b71e1cee8",
				"server":"5188",
				"farm":6,
				"title":"",
				"ispublic":1,
				"isfriend":0,
				"isfamily":0
			},
			{
				"id":"5572244111",
				"owner":"42336769@N05",
				"secret":"5c371949c5",
				"server":"5229",
				"farm":6,
				"title":"",
				"ispublic":1,
				"isfriend":0,
				"isfamily":0
			},
			{
				"id":"5572833454",
				"owner":"42336769@N05",
				"secret":"6a36067cf8",
				"server":"5104",
				"farm":6,
				"title":"",
				"ispublic":1,
				"isfriend":0,
				"isfamily":0
			},
			{
				"id":"5385597742",
				"owner":"58690584@N03",
				"secret":"54d6cdf145",
				"server":"5214",
				"farm":6,
				"title":"",
				"ispublic":1,
				"isfriend":0,
				"isfamily":0
			},
			{
				"id":"5385588910",
				"owner":"58690584@N03",
				"secret":"ba2a9fc61a",
				"server":"5214",
				"farm":6,
				"title":"",
				"ispublic":1,
				"isfriend":0,
				"isfamily":0
			},
			{
				"id":"5385574454",
				"owner":"58690584@N03",
				"secret":"edf5ef0385",
				"server":"5215",
				"farm":6,
				"title":"",
				"ispublic":1,
				"isfriend":0,
				"isfamily":0
			},
			{
				"id":"5384957985",
				"owner":"58690584@N03",
				"secret":"98e9789ebe",
				"server":"5220",
				"farm":6,
				"title":"",
				"ispublic":1,
				"isfriend":0,
				"isfamily":0
			},
			{
				"id":"5384957127",
				"owner":"58690584@N03",
				"secret":"d89c84590c",
				"server":"5220",
				"farm":6,
				"title":"",
				"ispublic":1,
				"isfriend":0,
				"isfamily":0
			},
			{
				"id":"5384946185",
				"owner":"58690584@N03",
				"secret":"04a43d3d1d",
				"server":"5220",
				"farm":6,
				"title":"",
				"ispublic":1,
				"isfriend":0,
				"isfamily":0
			},
			{
				"id":"5385528870",
				"owner":"58690584@N03",
				"secret":"70fd0b2b03",
				"server":"5212",
				"farm":6,
				"title":"",
				"ispublic":1,
				"isfriend":0,
				"isfamily":0
			},
			{
				"id":"5384927301",
				"owner":"58690584@N03",
				"secret":"610724458b",
				"server":"5216",
				"farm":6,
				"title":"",
				"ispublic":1,
				"isfriend":0,
				"isfamily":0
			},
			{
				"id":"5204145268",
				"owner":"32571883@N07",
				"secret":"93891a0ec1",
				"server":"4149",
				"farm":5,
				"title":"",
				"ispublic":1,
				"isfriend":0,
				"isfamily":0
			},
			{
				"id":"5197493895",
				"owner":"16077634@N00",
				"secret":"0837884dc8",
				"server":"4083",
				"farm":5,
				"title":"San Pellegrino onboard JQ35",
				"ispublic":1,
				"isfriend":0,
				"isfamily":0
			},
			{
				"id":"4760576007",
				"owner":"30718443@N08",
				"secret":"2317957294",
				"server":"4137",
				"farm":5,
				"title":"Great Barrier Reef - Australia",
				"ispublic":1,
				"isfriend":0,
				"isfamily":0
			},
			{
				"id":"4760575319",
				"owner":"30718443@N08",
				"secret":"a463f0fd14",
				"server":"4118",
				"farm":5,
				"title":"Great Barrier Reef - Australia",
				"ispublic":1,
				"isfriend":0,
				"isfamily":0
			},
			{
				"id":"4760573897",
				"owner":"30718443@N08",
				"secret":"b9d238e636",
				"server":"4138",
				"farm":5,
				"title":"Great Barrier Reef - Australia",
				"ispublic":1,
				"isfriend":0,
				"isfamily":0
			},
			{
				"id":"4761208062",
				"owner":"30718443@N08",
				"secret":"08b21d4d82",
				"server":"4143",
				"farm":5,
				"title":"Great Barrier Reef - Australia",
				"ispublic":1,
				"isfriend":0,
				"isfamily":0
			},
			{
				"id":"4017048296",
				"owner":"62238804@N00",
				"secret":"deb2804736",
				"server":"2575",
				"farm":3,
				"title":"2009_05_04_20_34_19",
				"ispublic":1,
				"isfriend":0,
				"isfamily":0
			},
			{
				"id":"4016284521",
				"owner":"62238804@N00",
				"secret":"572438a874",
				"server":"2799",
				"farm":3,
				"title":"2009_05_04_20_34_11",
				"ispublic":1,
				"isfriend":0,
				"isfamily":0
			},
			{
				"id":"4016284047",
				"owner":"62238804@N00",
				"secret":"9923cea86c",
				"server":"3505",
				"farm":4,
				"title":"2009_05_04_20_33_50",
				"ispublic":1,
				"isfriend":0,
				"isfamily":0
			},
			{
				"id":"4016283645",
				"owner":"62238804@N00",
				"secret":"5f887cd55f",
				"server":"2465",
				"farm":3,
				"title":"2009_05_04_20_33_41",
				"ispublic":1,
				"isfriend":0,
				"isfamily":0
			},
			{
				"id":"4017046590",
				"owner":"62238804@N00",
				"secret":"a11b554fe6",
				"server":"2582",
				"farm":3,
				"title":"2009_05_04_20_33_31",
				"ispublic":1,
				"isfriend":0,
				"isfamily":0
			},
			{
				"id":"4017046212",
				"owner":"62238804@N00",
				"secret":"9e4bb8611a",
				"server":"2795",
				"farm":3,
				"title":"2009_05_04_20_33_23",
				"ispublic":1,
				"isfriend":0,
				"isfamily":0
			},
			{
				"id":"4016282515",
				"owner":"62238804@N00",
				"secret":"bdeefd85e0",
				"server":"2679",
				"farm":3,
				"title":"2009_05_04_20_33_14",
				"ispublic":1,
				"isfriend":0,
				"isfamily":0
			},
			{
				"id":"4016282061",
				"owner":"62238804@N00",
				"secret":"ce5381cb8c",
				"server":"2782",
				"farm":3,
				"title":"2009_05_04_20_33_05",
				"ispublic":1,
				"isfriend":0,
				"isfamily":0
			},
			{
				"id":"4017044910",
				"owner":"62238804@N00",
				"secret":"a83e326875",
				"server":"3459",
				"farm":4,
				"title":"2009_05_04_20_32_57",
				"ispublic":1,
				"isfriend":0,
				"isfamily":0
			},
			{
				"id":"4016281285",
				"owner":"62238804@N00",
				"secret":"65f4dc45fb",
				"server":"2733",
				"farm":3,
				"title":"2009_05_04_20_32_48",
				"ispublic":1,
				"isfriend":0,
				"isfamily":0
			},
			{
				"id":"4016280807",
				"owner":"62238804@N00",
				"secret":"b214bca88d",
				"server":"2528",
				"farm":3,
				"title":"2009_05_04_20_32_40",
				"ispublic":1,
				"isfriend":0,
				"isfamily":0
			},
			{
				"id":"4017043706",
				"owner":"62238804@N00",
				"secret":"b0a6f396d7",
				"server":"3508",
				"farm":4,
				"title":"2009_05_04_20_32_31",
				"ispublic":1,
				"isfriend":0,
				"isfamily":0
			},
			{
				"id":"4016279877",
				"owner":"62238804@N00",
				"secret":"d364580121",
				"server":"2756",
				"farm":3,
				"title":"2009_05_04_20_32_23",
				"ispublic":1,
				"isfriend":0,
				"isfamily":0
			},
			{
				"id":"4016279441",
				"owner":"62238804@N00",
				"secret":"fd19fd0bac",
				"server":"2654",
				"farm":3,
				"title":"2009_05_04_20_31_10",
				"ispublic":1,
				"isfriend":0,
				"isfamily":0
			},
			{
				"id":"4016279009",
				"owner":"62238804@N00",
				"secret":"fe0632eaf0",
				"server":"2667",
				"farm":3,
				"title":"2009_05_04_20_31_01",
				"ispublic":1,
				"isfriend":0,
				"isfamily":0
			},
			{
				"id":"4016278455",
				"owner":"62238804@N00",
				"secret":"1f426cbe90",
				"server":"2621",
				"farm":3,
				"title":"2009_05_04_20_30_52",
				"ispublic":1,
				"isfriend":0,
				"isfamily":0
			},
			{
				"id":"4017041548",
				"owner":"62238804@N00",
				"secret":"d581c3b189",
				"server":"2695",
				"farm":3,
				"title":"2009_05_04_20_30_43",
				"ispublic":1,
				"isfriend":0,
				"isfamily":0
			},
			{
				"id":"4016277651",
				"owner":"62238804@N00",
				"secret":"d4b283f7e8",
				"server":"2564",
				"farm":3,
				"title":"2009_05_04_20_30_34",
				"ispublic":1,
				"isfriend":0,
				"isfamily":0
			},
			{
				"id":"4017040668",
				"owner":"62238804@N00",
				"secret":"97e7052178",
				"server":"2480",
				"farm":3,
				"title":"2009_05_04_20_30_25",
				"ispublic":1,
				"isfriend":0,
				"isfamily":0
			},
			{
				"id":"4017040210",
				"owner":"62238804@N00",
				"secret":"4193fee852",
				"server":"2657",
				"farm":3,
				"title":"2009_05_04_20_30_14",
				"ispublic":1,
				"isfriend":0,
				"isfamily":0
			},
			{
				"id":"4016276169",
				"owner":"62238804@N00",
				"secret":"6f53c65761",
				"server":"2613",
				"farm":3,
				"title":"2009_05_04_20_30_06",
				"ispublic":1,
				"isfriend":0,
				"isfamily":0
			},
			{
				"id":"4016275663",
				"owner":"62238804@N00",
				"secret":"312d991af8",
				"server":"3534",
				"farm":4,
				"title":"2009_05_04_20_29_57",
				"ispublic":1,
				"isfriend":0,
				"isfamily":0
			},
			{
				"id":"4016275203",
				"owner":"62238804@N00",
				"secret":"5386752719",
				"server":"2737",
				"farm":3,
				"title":"2009_05_04_20_29_49",
				"ispublic":1,
				"isfriend":0,
				"isfamily":0
			},
			{
				"id":"4016274885",
				"owner":"62238804@N00",
				"secret":"c42e8234e7",
				"server":"2586",
				"farm":3,
				"title":"2009_05_04_20_29_40",
				"ispublic":1,
				"isfriend":0,
				"isfamily":0
			},
			{
				"id":"4017037992",
				"owner":"62238804@N00",
				"secret":"417ffbaa79",
				"server":"3489",
				"farm":4,
				"title":"2009_05_04_20_29_31",
				"ispublic":1,
				"isfriend":0,
				"isfamily":0
			},
			{
				"id":"4016274093",
				"owner":"62238804@N00",
				"secret":"d18cd511ae",
				"server":"2453",
				"farm":3,
				"title":"2009_05_04_20_29_01",
				"ispublic":1,
				"isfriend":0,
				"isfamily":0
			},
			{
				"id":"4017037182",
				"owner":"62238804@N00",
				"secret":"a2cbca9c77",
				"server":"2687",
				"farm":3,
				"title":"2009_05_04_20_28_53",
				"ispublic":1,
				"isfriend":0,
				"isfamily":0
			},
			{
				"id":"4016273231",
				"owner":"62238804@N00",
				"secret":"210e00cf37",
				"server":"2518",
				"farm":3,
				"title":"2009_05_04_20_28_44",
				"ispublic":1,
				"isfriend":0,
				"isfamily":0
			},
			{
				"id":"4017036360",
				"owner":"62238804@N00",
				"secret":"df345c1b28",
				"server":"2670",
				"farm":3,
				"title":"2009_05_04_20_28_34",
				"ispublic":1,
				"isfriend":0,
				"isfamily":0
			},
			{
				"id":"4016272353",
				"owner":"62238804@N00",
				"secret":"f05f771bb0",
				"server":"2583",
				"farm":3,
				"title":"2009_05_04_20_28_25",
				"ispublic":1,
				"isfriend":0,
				"isfamily":0
			},
			{
				"id":"4017035344",
				"owner":"62238804@N00",
				"secret":"919fe73d8d",
				"server":"2602",
				"farm":3,
				"title":"2009_05_04_20_28_16",
				"ispublic":1,
				"isfriend":0,
				"isfamily":0
			},
			{
				"id":"4017034938",
				"owner":"62238804@N00",
				"secret":"c63f298687",
				"server":"2739",
				"farm":3,
				"title":"2009_05_04_20_28_06",
				"ispublic":1,
				"isfriend":0,
				"isfamily":0
			},
			{
				"id":"4017034552",
				"owner":"62238804@N00",
				"secret":"53c42655ae",
				"server":"2796",
				"farm":3,
				"title":"2009_05_04_20_27_58",
				"ispublic":1,
				"isfriend":0,
				"isfamily":0
			},
			{
				"id":"4016270437",
				"owner":"62238804@N00",
				"secret":"da2e5b423c",
				"server":"2497",
				"farm":3,
				"title":"2009_05_04_20_27_49",
				"ispublic":1,
				"isfriend":0,
				"isfamily":0
			},
			{
				"id":"4017033724",
				"owner":"62238804@N00",
				"secret":"35902f2d0d",
				"server":"2462",
				"farm":3,
				"title":"2009_05_04_20_27_40",
				"ispublic":1,
				"isfriend":0,
				"isfamily":0
			},
			{
				"id":"4016269615",
				"owner":"62238804@N00",
				"secret":"05e72cd3f2",
				"server":"3508",
				"farm":4,
				"title":"2009_05_04_20_27_32",
				"ispublic":1,
				"isfriend":0,
				"isfamily":0
			},
			{
				"id":"4016269229",
				"owner":"62238804@N00",
				"secret":"c02545a777",
				"server":"2485",
				"farm":3,
				"title":"2009_05_04_20_27_23",
				"ispublic":1,
				"isfriend":0,
				"isfamily":0
			},
			{
				"id":"4016268809",
				"owner":"62238804@N00",
				"secret":"5fb368e6a8",
				"server":"3479",
				"farm":4,
				"title":"2009_05_04_20_25_25",
				"ispublic":1,
				"isfriend":0,
				"isfamily":0
			},
			{
				"id":"4017032050",
				"owner":"62238804@N00",
				"secret":"d0068fe5db",
				"server":"2554",
				"farm":3,
				"title":"2009_05_04_20_25_16",
				"ispublic":1,
				"isfriend":0,
				"isfamily":0
			},
			{
				"id":"4016267989",
				"owner":"62238804@N00",
				"secret":"7beaf25e8b",
				"server":"2737",
				"farm":3,
				"title":"2009_05_04_20_25_08",
				"ispublic":1,
				"isfriend":0,
				"isfamily":0
			},
			{
				"id":"4017031166",
				"owner":"62238804@N00",
				"secret":"2e7ac0d3ba",
				"server":"2790",
				"farm":3,
				"title":"2009_05_04_20_24_57",
				"ispublic":1,
				"isfriend":0,
				"isfamily":0
			},
			{
				"id":"4017030730",
				"owner":"62238804@N00",
				"secret":"0cdfd99e66",
				"server":"3492",
				"farm":4,
				"title":"2009_05_04_20_24_49",
				"ispublic":1,
				"isfriend":0,
				"isfamily":0
			},
			{
				"id":"4017030218",
				"owner":"62238804@N00",
				"secret":"8c3f8352ac",
				"server":"2725",
				"farm":3,
				"title":"2009_05_04_20_24_41",
				"ispublic":1,
				"isfriend":0,
				"isfamily":0
			},
			{
				"id":"4017029676",
				"owner":"62238804@N00",
				"secret":"632c69d4a0",
				"server":"2428",
				"farm":3,
				"title":"2009_05_04_20_24_32",
				"ispublic":1,
				"isfriend":0,
				"isfamily":0
			},
			{
				"id":"4017029140",
				"owner":"62238804@N00",
				"secret":"6f3d8a3094",
				"server":"2539",
				"farm":3,
				"title":"2009_05_04_20_24_24",
				"ispublic":1,
				"isfriend":0,
				"isfamily":0
			},
			{
				"id":"4016265035",
				"owner":"62238804@N00",
				"secret":"2883b9a820",
				"server":"3517",
				"farm":4,
				"title":"2009_05_04_20_24_16",
				"ispublic":1,
				"isfriend":0,
				"isfamily":0
			},
			{
				"id":"4017028308",
				"owner":"62238804@N00",
				"secret":"2224519463",
				"server":"3497",
				"farm":4,
				"title":"2009_05_04_20_24_07",
				"ispublic":1,
				"isfriend":0,
				"isfamily":0
			},
			{
				"id":"4017027942",
				"owner":"62238804@N00",
				"secret":"b64269257e",
				"server":"2488",
				"farm":3,
				"title":"2009_05_04_20_24_00",
				"ispublic":1,
				"isfriend":0,
				"isfamily":0
			},
			{
				"id":"4016263919",
				"owner":"62238804@N00",
				"secret":"d08f34f5a1",
				"server":"2797",
				"farm":3,
				"title":"2009_05_04_20_23_50",
				"ispublic":1,
				"isfriend":0,
				"isfamily":0
			},
			{
				"id":"4016263575",
				"owner":"62238804@N00",
				"secret":"47e6e683c1",
				"server":"2694",
				"farm":3,
				"title":"2009_05_04_20_23_13",
				"ispublic":1,
				"isfriend":0,
				"isfamily":0
			},
			{
				"id":"4017026660",
				"owner":"62238804@N00",
				"secret":"dae811c26a",
				"server":"2687",
				"farm":3,
				"title":"2009_05_04_20_23_04",
				"ispublic":1,
				"isfriend":0,
				"isfamily":0
			},
			{
				"id":"4016257841",
				"owner":"62238804@N00",
				"secret":"6c895e37a2",
				"server":"2479",
				"farm":3,
				"title":"2009_05_04_20_21_09",
				"ispublic":1,
				"isfriend":0,
				"isfamily":0
			},
			{
				"id":"4017020996",
				"owner":"62238804@N00",
				"secret":"8bc420f094",
				"server":"3527",
				"farm":4,
				"title":"2009_05_04_20_21_00",
				"ispublic":1,
				"isfriend":0,
				"isfamily":0
			},
			{
				"id":"4017020530",
				"owner":"62238804@N00",
				"secret":"8b8d8cac51",
				"server":"2558",
				"farm":3,
				"title":"2009_05_04_20_20_51",
				"ispublic":1,
				"isfriend":0,
				"isfamily":0
			},
			{
				"id":"4017020116",
				"owner":"62238804@N00",
				"secret":"a8fcd6338c",
				"server":"2788",
				"farm":3,
				"title":"2009_05_04_20_20_41",
				"ispublic":1,
				"isfriend":0,
				"isfamily":0
			},
			{
				"id":"4016255961",
				"owner":"62238804@N00",
				"secret":"3ab3af4cef",
				"server":"3504",
				"farm":4,
				"title":"2009_05_04_20_20_33",
				"ispublic":1,
				"isfriend":0,
				"isfamily":0
			},
			{
				"id":"4017019190",
				"owner":"62238804@N00",
				"secret":"82de02a059",
				"server":"2667",
				"farm":3,
				"title":"2009_05_04_20_20_24",
				"ispublic":1,
				"isfriend":0,
				"isfamily":0
			},
			{
				"id":"4016255139",
				"owner":"62238804@N00",
				"secret":"57c9883087",
				"server":"2635",
				"farm":3,
				"title":"2009_05_04_20_20_15",
				"ispublic":1,
				"isfriend":0,
				"isfamily":0
			},
			{
				"id":"4017018306",
				"owner":"62238804@N00",
				"secret":"5204322068",
				"server":"2542",
				"farm":3,
				"title":"2009_05_04_20_20_06",
				"ispublic":1,
				"isfriend":0,
				"isfamily":0
			},
			{
				"id":"4017017878",
				"owner":"62238804@N00",
				"secret":"b920fbaa8a",
				"server":"3137",
				"farm":4,
				"title":"2009_05_04_20_19_57",
				"ispublic":1,
				"isfriend":0,
				"isfamily":0
			},
			{
				"id":"4016253883",
				"owner":"62238804@N00",
				"secret":"9b2b58ed59",
				"server":"2454",
				"farm":3,
				"title":"2009_05_04_20_19_49",
				"ispublic":1,
				"isfriend":0,
				"isfamily":0
			}
		]
	},
	"stat":"ok"
}